[
    {
        "name": "Adaptor",
        "model": "LA-EA3",
        "image": "img/accessories/adaptors/la-ea3.png",
        "thumbnail": "img/accessories/adaptors/thumb-la-ea3.jpg",
        "thumbnail-mobile": "img/accessories/adaptors/thumb-la-ea3-mobile.jpg",
        "url": "//www.sony-asia.com/electronics/converters-mount-adapters/la-ea3?cid=LA-EA3:model:ilc:ms:accy",
        "features": [
            "A-mount lens adaptor",
            "35mm Full Frame compatibility",
            "Compatible with wide range of A-mounts including SAM/SSM",
            "Aperture mechanism to support auto exposure"
        ]
    },
    {
        "name": "Adaptor",
        "model": "LA-EA4",
        "image": "img/accessories/adaptors/la-ea4.png",
        "thumbnail": "img/accessories/adaptors/thumb-la-ea4.jpg",
        "thumbnail-mobile": "img/accessories/adaptors/thumb-la-ea4-mobile.jpg",
        "url": "//www.sony.com.sg/electronics/converters-mount-adapters/la-ea4?cid=LA-EA4:model:ilc:ms:accy",
        "features": [
            "A-mount lens adaptor",
            "35mm Full Frame compatibility",
            "Continuous AF with Translucent Mirror technology",
            "Aperture mechanism to support auto exposure",
            "Phase detection"
        ]
    },
    {
        "name": "Flash",
        "model": "HVL-F20M",
        "image": "img/accessories/flash/hvl-f20m.png",
        "thumbnail": "img/accessories/flash/thumb-hvl-f20m.jpg",
        "thumbnail-mobile": "img/accessories/flash/thumb-hvl-f20m-mobile.jpg",
        "url": "//www.sony.com.sg/electronics/interchangeable-lens-cameras-flashes-lights/hvl-f20m?cid=HVL-F20M:model:ilc:ms:accy",
        "features": [
            "GN20 brightness",
            "Just raise the flash head to switch on and start shooting",
            "Get pro-style bounce effects by adjusting the flash angle",
            "The flash folds down neatly on the camera to save space"
        ]
    },
    {
        "name": "Flash",
        "model": "HVL-F32M",
        "image": "img/accessories/flash/hvl-f32m.png",
        "thumbnail": "img/accessories/flash/thumb-hvl-f32m.jpg",
        "thumbnail-mobile": "img/accessories/flash/thumb-hvl-f32m-mobile.jpg",
        "url": "//www.sony.com.sg/electronics/interchangeable-lens-cameras-flashes-lights/hvl-f32m?cid=HVL-F32M:model:ilc:ms:accy",
        "features": [
            "GN32 brightness",
            "Built-in wide panel and bounce structure for subtle light",
            "Dust and moisture resistant for shooting under any conditions",
            "Easy-to-read LCD panel",
            "Keep the flash safe in the included carrying pouch"
        ]
    },
    {
        "name": "Flash",
        "model": "HVL-F43M",
        "image": "img/accessories/flash/hvl-f43m.png",
        "thumbnail": "img/accessories/flash/thumb-hvl-f43m.jpg",
        "thumbnail-mobile": "img/accessories/flash/thumb-hvl-f43m-mobile.jpg",
        "url": "//www.sony.com.sg/electronics/interchangeable-lens-cameras-flashes-lights/hvl-f43m?cid=HVL-F43M:model:ilc:ms:accy",
        "features": [
            "GN43 brightness",
            "Effective for more than 10.5 metres",
            "Quick shift bounce",
            "Control other flash units wirelessly"
        ]
    },
    {
        "name": "Flash",
        "model": "HVL-F60M",
        "image": "img/accessories/flash/hvl-f60m.png",
        "thumbnail": "img/accessories/flash/thumb-hvl-f60m.jpg",
        "thumbnail-mobile": "img/accessories/flash/thumb-hvl-f60m-mobile.jpg",
        "url": "//www.sony.com.sg/electronics/interchangeable-lens-cameras-flashes-lights/hvl-f60m?cid=HVL-F60M:model:ilc:ms:accy",
        "features": [
            "A high light output of GN60 and 1200 lux",
            "Auto-optimised illumination angles create the right light",
            "Simple and intuitive settings offer camera-like operation"
        ]
    },
    {
        "name": "Remote Commander",
        "model": "RM-VPR1",
        "image": "img/accessories/remote_commander/rm-vpr1.png",
        "thumbnail": "img/accessories/remote_commander/thumb-rm-vpr1.jpg",
        "thumbnail-mobile": "img/accessories/remote_commander/thumb-rm-vpr1-mobile.jpg",
        "url": "//www.sony.com.sg/electronics/interchangeable-lens-camera-products/t/accessories?cid=RM-VPR1:model:ilc:ms:accy",
        "features": [
            "Vibration-free shutter release",
            "Control shutter release, video record and zoom",
            "Multi Interface Shoe"
        ]
    },
    {
        "name": "Remote Commander",
        "model": "RMT-DSLR2",
        "image": "img/accessories/remote_commander/rmt-dslr2.png",
        "thumbnail": "img/accessories/remote_commander/thumb-rmt-dslr2.jpg",
        "thumbnail-mobile": "img/accessories/remote_commander/thumb-rmt-dslr2-mobile.jpg",
        "url": "//www.sony.com.sg/electronics/interchangeable-lens-cameras-tripods-remotes/rmt-dslr2?cid=RMT-DSLR2:model:ilc:ms:accy",
        "features": [
            "Remote Shutter Release",
            "Delayed Shutter Release",
            "Video Start and Stop",
            "Playback and Delete Control"
        ]
    },
    {
        "name": "Vertical Grip",
        "model": "VG-C1EM",
        "image": "img/accessories/vertical_grip/vg-c1em.png",
        "thumbnail": "img/accessories/vertical_grip/thumb-vg-c1em.jpg",
        "thumbnail-mobile": "img/accessories/vertical_grip/thumb-vg-c1em-mobile.jpg",
        "url": "//www.sony.com.sg/electronics/interchangeable-lens-cameras-vertical-grips/vg-c1em?cid=VG-C1EM:model:ilc:ms:accy",
        "features": [
            "Dual battery tray (batteries not included)",
            "Dust and moisture resistant",
            "Good for horizontal and vertical shots",
            "Stable, controlled shooting",
            "Battery power level indicator",
            "Compatible with &alpha;7, &alpha;7R & &alpha;7S only"
        ]
    },
    {
        "name": "Vertical Grip",
        "model": "VG-C2EM",
        "image": "img/accessories/vertical_grip/vg-c2em.png",
        "thumbnail": "img/accessories/vertical_grip/thumb-vg-c2em.jpg",
        "thumbnail-mobile": "img/accessories/vertical_grip/thumb-vg-c2em-mobile.jpg",
        "url": "//www.sony.com.sg/electronics/interchangeable-lens-cameras-vertical-grips/vg-c2em?cid=VG-C2EM:model:ilc:ms:accy",
        "features": [
            "Dual battery tray (batteries not included)",
            "Dust and moisture resistant",
            "Good for horizontal and vertical shots",
            "Stable, controlled shooting",
            "Three buttons for custom-assign functions",
            "Compatible with &alpha;7II only"
        ]
    },
    {
        "name": "Case",
        "model": "LCS-ELCA",
        "image": "img/accessories/case/lcs-elca.png",
        "thumbnail": "img/accessories/case/thumb-lcs-elca.jpg",
        "thumbnail-mobile": "img/accessories/case/thumb-lcs-elca-mobile.jpg",
        "url": "//www.sony.com.sg/electronics/interchangeable-lens-cameras-cases-covers-straps/lcs-elca?cid=LCS-ELCA:model:ilc:ms:accy",
        "features": [
            "Leather design for stylish, tough protection",
            "NFC connection through casing",
            "Easy access for quick shooting",
            "Compatible with &alpha;7, &alpha;7R & &alpha;7S only"
        ]
    },
    {
        "name": "Case",
        "model": "LCS-ELCB",
        "image": "img/accessories/case/lcs-elcb.png",
        "thumbnail": "img/accessories/case/thumb-lcs-elcb.jpg",
        "thumbnail-mobile": "img/accessories/case/thumb-lcs-elcb-mobile.jpg",
        "url": "//www.sony.com.sg/electronics/interchangeable-lens-cameras-cases-covers-straps/lcs-elcb?cid=LCS-ELCB:model:ilc:ms:accy",
        "features": [
            "Real leather design for stylish, tough protection",
            "NFC connection through casing",
            "USB, memory card, and battery slot accessible",
            "Compatible with &alpha;7II only"
        ]
    }
]